HW3-EDA with R - Part 2: Group by analysis
…
 # The quantile function threw some errors when I tried to run it with seq it only gave me one column for all of the quantiles.

Now look at the entire US. What are the 5th, 50th, and 95th percentile of median income by state? Sort in descending ordery by median of median income.

county_df %>% 
  group_by(State) %>% 
    summarize("5th percentile" = quantile(Income, probs = .05, na.rm = TRUE),
            "50th Percentile" = quantile(Income, probs = .5, na.rm = TRUE),
            "95th Percentile" = quantile(Income, probs = .95, na.rm = TRUE), 
              medianincome = median(Income)) %>% arrange(desc(medianincome))

## # A tibble: 51 x 5
##    State   `5th percentile` `50th Percentil `95th Percentil medianincome
##    <fct>              <dbl>            <dbl>            <dbl>        <dbl>
##  1 Distri            70848            70848            70848        70848
##  2 New Je            53976            70471           100667        70471
##  3 Rhode             52671            69526            72737        69526
##  4 Connec            60179            69228            82714        69228
##  5 Maryla            40804            66746            98894        66746
##  6 Hawaii             54707            66250            72863        66250
##  7 Alaska             42504            64222            83201        64222
##  8 Massac            50284            63736            86218        63736
##  9 New Ha            47259            59246            76719        59246
## 10 Wyoming            40627            56569            79586        56569
## # ... with 41 more rows
…
Which states have the lowest average percentage of people who drive to work? Be careful about those NA values

county_df %>%
  group_by(State) %>%
  summarize(Percent_Who_Drive = mean(Drive)) %>%
  arrange(Percent_Who_Drive)

## # A tibble: 51 x 2
##    State                Percent_Who_Drive
##    <fct>                            <dbl>
##  1 District of Columbia              33.7
##  2 Alaska                            46.8
##  3 Hawaii                            64.4
##  4 Montana                           69.6
##  5 Colorado                          70.6
##  6 South Dakota                      71.9
##  7 Nevada                            72.9
##  8 California                        73.2
##  9 North Dakota                      73.2
## 10 Oregon                            73.8
## # ... with 41 more rows

Which counties having a total population greater than 75000 have the lowest percentage of people who drive to work? Display State, County and Drive. county_MI %>% filter(TotalPop >= 200000) %>% arrange(desc(TotalPop))

county_df %>% filter(TotalPop > 75000) %>% group_by(State, County) %>%
  summarize(Percent_Who_Drive = mean(Drive)) %>% arrange(Percent_Who_Drive)

## # A tibble: 732 x 3
## # Groups:   State [51]
##    State                County               Percent_Who_Drive
##    <fct>                <fct>                            <dbl>
##  1 New York             New York                          6.10
##  2 New York             Kings                            18.6 
##  3 New York             Bronx                            22.5 
##  4 New York             Queens                           31.6 
##  5 District of Columbia District of Columbia             33.7 
##  6 California           San Francisco                    35.9 
##  7 New Jersey           Hudson                           38.4 
##  8 Massachusetts        Suffolk                          40.8 
##  9 Pennsylvania         Philadelphia                     50.4 
## 10 Virginia             Arlington                        54.2 
## # ... with 722 more rows

Repeat the previous query for the state of Michigan.

county_MI %>% filter(TotalPop > 75000) %>% group_by(State, County) %>%
  summarize(Percent_Who_Drive = mean(Drive)) %>% arrange(Percent_Who_Drive)

## # A tibble: 26 x 3
## # Groups:   State [1]
##    State    County         Percent_Who_Drive
##    <fct>    <fct>                      <dbl>
##  1 Michigan Washtenaw                   72.6
##  2 Michigan Ingham                      76.4
##  3 Michigan Calhoun                     80.8
##  4 Michigan Wayne                       81.0
##  5 Michigan Grand Traverse              81.4
##  6 Michigan Kent                        81.6
##  7 Michigan Jackson                     82.3
##  8 Michigan Berrien                     82.6
##  9 Michigan St. Clair                   82.6
## 10 Michigan Kalamazoo                   82.7
## # ... with 16 more rows
…
